{
  "schedules": [
    {
      "alert": "Week Update - We are now meeting on the third Thursday of the month.",
      "date": "17 NOV 2016",
      "intro": {
        "title": "SecDSM 101",
        "time": "6:00 PM",
        "description": "A brief introduction to the group along with any announcements and general communication."
      },
      "tooltalks": [
//        {
//          "title": "BINARY NINJA",
//          "description": "",
//          "time": "6:10 PM",
//          "speaker": {
//            "name": "Nicholas Starke",
//            "bio": ""
//          }
//        }
      ],
      "features": [
        {
          "title": "Updating SecDSM Website",
          "time": "6:10 PM",
          "description": "",
          "speaker": {
            "name": "James Stumme",
            "bio": ""
          }
        },
        {
          "title": "NextGen Vendor Risk Management:  How to Raise the Bar on <>aaS Providers.",
          "time": "6:40 PM",
          "description": "VRM is a big deal.  We need to make sure when we ship out our data that vendors are taking as good or better care of it than we are.  But we are struggling to protect our in-house data.  Perhaps, this is why I often find security vendors struggling to provide adequate evidence that they are protecting my cloud data--market demands and standards are low.  Let's talk about how, why, and where we can apply pressure to <>aaS Providers.",
          "speaker": {
            "name": "Michael Jackson",
            "bio": ""
          }
        } //,
//        {
//          "title": "Cyber Deception",
//          "time": "7:30 PM",
//          "description": "CYBER! CYBER! CYBER!  Now that everyone is 3 shots deep, I plan to discuss info sec deception tools from Black Hills Info Sec and Cymmetria. These are, at their core, a software suite or tool to make honeypots and honeytokens, along with several other methods, actually functionally usable to setup and run.  I will be doing a basic review of the Active Defense Harbinger Distribution(BHIS) and Mazerunner from Cymmetria. To follow on from Gadi's discussion of using \"cyber deception\" tools for threat hunting, I will also show a demo of Mazerunner.",
//          "speaker": {
//            "name": "James Beal",
//            "bio": ""
//          }
//        }
      ]
    }
  ],
  "events": [
    {
      "name": "Oct",
      "events": [
        {
          "url": "http://bit.ly/cmhhist",
          "name": "PluggedIn",
          "time": "Tuesday - Oct 25th",
          "description": "A community event for sharing and learning all things hot in technology.  The event starts at 5:30pm and is hosted at The Forge.  This months topic is 'Those who know history are doomed to watch others repeat it.'",
          "geolocation": "https://www.google.com/maps/embed?pb=!1m18!1m12!1m3!1d2984.305744458922!2d-93.63765868415506!3d41.58426797924662!2m3!1f0!2f0!3f0!3m2!1i1024!2i768!4f13.1!3m3!1m2!1s0x87ee991d8dca415f%3A0x84112296254b6c27!2sForge+by+Pillar+Technology!5e0!3m2!1sen!2sus!4v1476802524764"
        }
      ]
    },
    {
      "name": "Nov",
      "events": [
        {
          "url": "http://seckc.org/",
          "name": "SecKC Road Trip",
          "time": "Tuesday - Nov 15th",
          "description": "There is a standing self organizing road trip every month to the SecKC meeting. The meeting starts at 6pm. Meet at the Target parking lot at the West Glenn shopping center in the south west corner at 1:00pm and will leave at 1:15pm. This is a self organizing event.  Participants that show up are resposible for figuring out carpool/rideshare arrangments with each other. If one person shows up, they drive yourself down.  If 8 poeple show up, figure out who is driving then go!",
          "geolocation": "https://www.google.com/maps/embed?pb=!1m18!1m12!1m3!1d1733.1573111312484!2d-93.7799096857767!3d41.55992380534094!2m3!1f0!2f0!3f0!3m2!1i1024!2i768!4f13.1!3m3!1m2!1s0x0%3A0x0!2zNDHCsDMzJzM1LjciTiA5M8KwNDYnNDQuMSJX!5e1!3m2!1sen!2sus!4v1460085181986"
        },
        {
          "url": "",
          "name": "OWASP Ames",
          "time": "Wednesday - November 16th: 6-7pm",
          "description": "Log messages. Your company probably has billions of them; but are they useful, or just noise? Having meaningful log data is a critical part of running a successful IT shop or hosted web application. How often does your user hit that weird edge-case bug? How many times has this IP address accessed our web front-end using a non-standard browser? How much processing time could we save our customer by refactoring that one function? In many environments, finding answers to these types of questions can be difficult or even impossible. Sure, the data might be there, but is it even useful? In this sysadmin and developer-focused talk, we'll discuss ways to provide more meaningful and parsable log data, whether using an off-the-shelf product, open source, or written in-house. We'll also briefly demonstrate how tools like Splunk or ELK stack can be leveraged to make better decisions, saving time and money.",
          "geolocation": "https://www.google.com/maps/place/2900+University+Blvd,+Ames,+IA+50010/@41.9955875,-93.6403199,17z/data=!3m1!4b1!4m5!3m4!1s0x87ee7a46b41c02c3:0x7e804f6c28d7488!8m2!3d41.9955835!4d-93.6381312"
        }
      ]
    },
    {
      "name": "Jan",
      "events": [
        {
          "url": "http://artintoscience.com/",
          "name": "ART INTO SCIENCE: A CONFERENCE FOR DEFENSE",
          "time": "25th to 27th of January, 2017",
          "description": "ART INTO SCIENCE IS A CONFERENCE FOR DEFENSE, ORGANIZED BY DEFENDERS."
        }
      ]
    },
    {
      "name": "April",
      "events": [
          {
            "url": "",
            "name": "Bsides Iowa",
            "time": "Apr 22"
          }
      ]
    }
  ]
}
